<?xml version="1.0" standalone="no"?>
<!DOCTYPE svg PUBLIC "-//W3C//DTD SVG 20010904//EN"
 "http://www.w3.org/TR/2001/REC-SVG-20010904/DTD/svg10.dtd">
<svg version="1.0" xmlns="http://www.w3.org/2000/svg"
 width="700.000000pt" height="700.000000pt" viewBox="0 0 700.000000 700.000000"
 preserveAspectRatio="xMidYMid meet">
<metadata>
Created by potrace 1.11, written by Peter Selinger 2001-2013
</metadata>
<g transform="translate(0.000000,700.000000) scale(0.100000,-0.100000)"
fill="#000000" stroke="none">
<path d="M547 5680 c-112 -57 -171 -113 -219 -210 -30 -61 -33 -72 -33 -170 0
-114 23 -210 51 -210 35 0 292 -92 420 -150 104 -48 236 -114 282 -144 23 -14
43 -26 46 -26 2 0 35 -19 72 -42 341 -206 683 -499 965 -827 79 -92 104 -128
125 -185 94 -250 301 -450 539 -522 33 -10 64 -21 68 -25 5 -3 8 -58 8 -121 0
-198 -43 -323 -125 -358 -22 -10 -104 -35 -181 -55 -313 -81 -292 -73 -309
-119 -26 -72 -36 -120 -36 -177 0 -56 25 -149 40 -149 5 0 53 9 107 19 54 11
125 24 158 30 33 6 76 13 95 17 19 3 44 7 55 8 11 2 40 6 65 10 67 11 86 14
195 26 55 6 116 13 135 15 19 2 40 4 46 5 7 0 13 32 16 83 10 162 94 298 227
370 l52 29 39 -36 c99 -89 303 -225 460 -306 36 -18 72 -37 80 -42 65 -35 332
-134 410 -152 37 -9 48 -18 55 -48 6 -24 5 -27 -17 -23 -223 41 -1083 41
-1393 1 -22 -3 -65 -8 -95 -11 -30 -4 -80 -10 -110 -15 -30 -5 -77 -12 -105
-15 -27 -3 -84 -12 -125 -19 -41 -8 -113 -22 -160 -30 -47 -9 -94 -18 -105
-20 -148 -29 -462 -109 -632 -161 -65 -20 -134 -41 -153 -47 -149 -43 -533
-191 -779 -300 -146 -64 -510 -244 -526 -259 -6 -6 874 -8 2345 -6 2506 4
2349 1 2580 46 118 24 303 82 420 133 424 186 804 534 1030 943 l43 78 -23 71
c-32 100 -103 265 -162 376 -44 82 -158 264 -194 310 -216 268 -348 395 -559
536 -340 226 -677 336 -1130 369 -82 6 -140 11 -255 21 -121 10 -305 45 -395
75 -208 69 -492 234 -730 426 -60 48 -117 95 -126 103 -8 8 -41 37 -72 64 -32
26 -123 112 -203 189 -80 78 -153 146 -162 152 -56 38 -269 101 -455 134 -97
18 -133 19 -192 6 -38 -8 -210 -18 -305 -18 -193 -1 -421 34 -585 88 -165 54
-342 151 -461 252 -28 24 -53 43 -55 43 -2 0 -30 -13 -62 -30z"/>
<path d="M346 5061 c21 -19 307 -193 409 -248 138 -75 302 -154 425 -206 108
-45 310 -118 310 -112 0 9 -201 146 -313 213 -227 137 -525 273 -712 327 -33
10 -70 21 -83 26 -30 12 -49 12 -36 0z"/>
</g>
</svg>
