<?xml version="1.0" encoding="utf-8"?>
<!-- Generator: Adobe Illustrator 22.0.1, SVG Export Plug-In . SVG Version: 6.00 Build 0)  -->
<svg version="1.1" id="Ebene_1" xmlns="http://www.w3.org/2000/svg" xmlns:xlink="http://www.w3.org/1999/xlink" x="0px" y="0px"
	 viewBox="0 0 1000 1000" style="enable-background:new 0 0 1000 1000;" xml:space="preserve">
<style type="text/css">
	.st0{fill:#3AAFA9;}
	.st1{fill:#FFFFFF;}
</style>
<g>
	<circle class="st0" cx="500" cy="500" r="500"/>
</g>
<g>
	<path class="st1" d="M448.5,508.7c0-17.5-14.2-31.7-31.7-31.7h-32.9c-17.5,0-31.7,14.2-31.7,31.7v220.6c0,17.5,14.2,31.7,31.7,31.7
		h32.9c17.5,0,31.7-14.2,31.7-31.7V508.7L448.5,508.7z"/>
	<path class="st1" d="M306.5,585.7c0-18.8-15.3-34.1-34.1-34.1h-28.1c-18.8,0-34.1,15.3-34.1,34.1v141.2c0,18.8,15.3,34.1,34.1,34.1
		h28.1c18.8,0,34.1-15.3,34.1-34.1V585.7z"/>
	<path class="st1" d="M588.1,424.5c0-17.5-14.2-31.7-31.7-31.7h-32.9c-17.5,0-31.7,14.2-31.7,31.7v304.8c0,17.5,14.2,31.7,31.7,31.7
		h32.9c17.5,0,31.7-14.2,31.7-31.7V424.5z"/>
	<path class="st1" d="M764.6,303l-61.7-79.2c-5.3-6.8-12.9-10.8-20.8-10.8c-7.9,0-15.5,3.9-20.8,10.8L599.5,303
		c-5.3,6.8-6.6,14.2-3.6,20.5c3.3,6.8,11.2,10.8,21.2,10.8l16.6,0v396c0,17.5,14.2,30.8,31.7,30.8h33.1c17.5,0,31.4-13.3,31.4-30.8
		V334l16.7,0.2c10,0,18-4,21.3-10.8C771.1,317.2,769.9,309.7,764.6,303z"/>
</g>
</svg>
