<?xml version="1.0" encoding="utf-8"?>
<!-- Generator: Adobe Illustrator 18.1.1, SVG Export Plug-In . SVG Version: 6.00 Build 0)  -->
<svg version="1.1" id="Ebene_1" xmlns="http://www.w3.org/2000/svg" xmlns:xlink="http://www.w3.org/1999/xlink" x="0px" y="0px"
	 viewBox="0 342 800 118" enable-background="new 0 342 800 118" xml:space="preserve">
<g>
	<path fill="#FFFFFF" d="M92.2,353.8c9,6.8,15.2,16.1,18.6,27.8H95.4c-2.9-7.4-7.5-13.4-13.9-17.8c-6.4-4.4-14.2-6.6-23.6-6.6
		c-7.4,0-14,1.8-19.8,5.4c-5.8,3.6-10.4,8.7-13.8,15.4c-3.4,6.6-5.1,14.5-5.1,23.4c0,8.9,1.7,16.6,5,23.2
		c3.4,6.6,7.9,11.8,13.8,15.3c5.8,3.6,12.4,5.4,19.8,5.4c9.3,0,17.1-2.2,23.6-6.6c6.4-4.4,11-10.4,13.9-17.8h15.4
		c-3.4,11.8-9.6,21-18.6,27.8c-8.9,6.8-20.2,10.2-34.1,10.2c-10.6,0-19.9-2.4-28.1-7.3S15.4,439.7,11,431
		c-4.6-8.7-6.8-18.6-6.8-29.8c0-11.2,2.2-21.2,6.8-30c4.6-8.8,10.9-15.6,19-20.4c8.1-4.9,17.4-7.3,28.1-7.3
		C71.8,343.6,83.2,347,92.2,353.8z"/>
	<path fill="#FFFFFF" d="M189.3,457.7l-29.5-46.2h-15.8v46.2h-14.6v-113h37.2c12.8,0,22.4,3,28.9,9.2c6.4,6.2,9.6,14.3,9.6,24.5
		c0,9.2-2.6,16.6-7.7,22.2c-5.1,5.6-12.6,9.1-22.2,10.5l30.8,46.6H189.3z M143.9,401h21.3c16.6,0,24.9-7.3,24.9-21.8
		c0-14.5-8.3-21.8-24.9-21.8h-21.3V401z"/>
	<path fill="#FFFFFF" d="M301.5,350.6c8.4,4.9,15,11.8,19.8,20.6c4.8,8.8,7.2,18.8,7.2,29.9c0,11.1-2.4,21-7.2,29.9
		c-4.8,8.8-11.4,15.7-19.8,20.6c-8.4,4.9-17.8,7.4-28.3,7.4s-19.9-2.5-28.5-7.4c-8.5-4.9-15.1-11.8-19.9-20.6s-7.2-18.8-7.2-29.9
		c0-11.1,2.4-21,7.2-29.9c4.8-8.8,11.4-15.7,19.9-20.6c8.5-4.9,18-7.4,28.5-7.4S293.1,345.8,301.5,350.6z M252.3,362.2
		c-6.2,3.6-11,8.7-14.4,15.4c-3.4,6.6-5.2,14.5-5.2,23.5c0,8.9,1.8,16.6,5.2,23.4c3.4,6.7,8.2,11.9,14.4,15.4
		c6.2,3.6,13.1,5.4,20.9,5.4c7.7,0,14.6-1.8,20.7-5.4c6.2-3.6,11-8.8,14.4-15.4c3.4-6.6,5.2-14.5,5.2-23.4c0-9-1.8-16.8-5.2-23.5
		c-3.4-6.6-8.3-11.8-14.4-15.4c-6.2-3.6-13-5.4-20.7-5.4C265.4,356.9,258.5,358.7,252.3,362.2z"/>
	<path fill="#FFFFFF" d="M430.9,353.8c9,6.8,15.2,16.1,18.6,27.8h-15.4c-2.9-7.4-7.5-13.4-13.9-17.8c-6.4-4.4-14.2-6.6-23.6-6.6
		c-7.4,0-14,1.8-19.8,5.4c-5.8,3.6-10.4,8.7-13.8,15.4s-5,14.5-5,23.5c0,8.9,1.7,16.6,5,23.2c3.4,6.6,7.9,11.8,13.8,15.3
		c5.8,3.6,12.4,5.4,19.8,5.4c9.3,0,17.1-2.2,23.6-6.6c6.4-4.4,11-10.4,13.9-17.8h15.4c-3.4,11.8-9.6,21-18.6,27.8
		c-9,6.8-20.3,10.2-34.2,10.2c-10.6,0-19.9-2.4-28.1-7.3c-8.2-4.9-14.5-11.7-19-20.3c-4.6-8.7-6.8-18.6-6.8-29.8
		c0-11.2,2.2-21.2,6.8-30c4.6-8.8,10.9-15.6,19-20.4c8.1-4.9,17.4-7.3,28.1-7.3C410.5,343.6,421.8,347,430.9,353.8z"/>
	<path fill="#FFFFFF" d="M490,440.4h38v17.3h-60.6V344.6H490V440.4z"/>
	<path fill="#FFFFFF" d="M562.6,344.6v113.1h-22.6V344.6H562.6z"/>
	<path fill="#FFFFFF" d="M680.6,457.7h-22.6l-50.6-77v77h-22.6V344.6h22.6l50.6,77.6v-77.6h22.6V457.7z"/>
	<path fill="#FFFFFF" d="M746.5,400.2l47.9,57.5H767l-41.8-51.8v51.8h-22.6V344.6h22.6v50.8l42-50.8h27.3L746.5,400.2z"/>
</g>
</svg>
